{"location": "base", "data": [24, 81, 0, 6, 11, 0, 0, 0, 1, 0, 224, 0, 0, 0, 38, 33, 128, 154, 0, 0, 54, 255, 0, 0, 0, 0, 64, 0, 0, 0, 0, 0, 0, 0, 0, 0, 0, 0, 0, 0, 1, 0, 0, 0, 0, 0, 0, 0, 0, 0, 0, 0, 0, 0, 0, 0, 0, 0, 0, 0, 0, 0, 0, 0, 0, 0, 0, 0, 0, 0, 0, 0, 0, 0, 0, 0, 0, 0, 0, 0, 0, 0, 0, 0, 0, 2, 17, 70, 129, 1, 13, 70, 33, 85, 13, 71, 33, 21, 13, 72, 33, 5, 65, 72, 65, 17, 65, 73, 65, 1, 17, 196, 129, 1, 13, 196, 33, 85, 0, 0, 0, 0, 0, 0, 0, 0, 0, 177]}
{"location": "up_00_00", "data": [24, 73, 78, 70, 73, 78, 69, 82, 65, 32, 32, 32, 32, 32, 32, 32, 32, 2, 11, 248, 56, 50, 48, 45, 48, 48, 48, 51, 45, 50, 48, 49, 32, 32, 32, 32, 32, 32, 77, 65, 49, 53, 50, 52, 49, 51, 48, 48, 49, 53, 32, 32, 32, 32, 50, 48, 49, 48, 49, 50, 48, 48, 32, 32, 32, 32, 32, 32, 32, 32, 32, 32, 224, 106, 0, 7, 0, 0, 0, 0, 0, 0, 254, 0, 16, 0, 0, 0, 0, 0, 0, 0, 0, 0, 156, 0, 0, 0, 0, 0, 0, 0, 0, 0, 0, 0, 0, 0, 0, 0, 0, 0, 0, 0, 0, 0, 0, 0, 0, 0, 0, 0, 0, 0, 0, 0, 0, 0]}
{"location": "up_00_01", "data": [0, 0, 0, 0, 191, 0, 0, 0, 0, 0, 120, 234, 0, 3, 228, 240, 122, 229, 70, 0, 0, 0, 157, 18, 0, 240, 119, 195, 3, 15, 6, 15, 15, 25, 61, 103, 0, 0, 0, 122, 138, 0, 0, 0, 0, 0, 0, 0, 1, 1, 1, 1, 1, 1, 1, 1, 1, 1, 1, 1, 1, 1, 1, 0, 0, 0, 0, 0, 0, 0, 0, 0, 0, 0, 0, 0, 0, 0, 0, 0, 0, 0, 0, 0, 0, 0, 0, 0, 0, 0, 0, 0, 0, 0, 0, 65, 196, 65, 17, 5, 196, 17, 255, 15, 196, 65, 17, 10, 196, 17, 255, 57, 196, 65, 17, 83, 196, 33, 85, 192, 195, 17, 255, 0, 0, 0, 0, 30]}
{"location": "up_00_04", "data": [162, 0, 0, 0, 0, 0, 254, 192, 1, 226, 0, 0, 0, 0, 0, 0, 0, 0, 0, 0, 0, 0, 255, 236, 0, 30, 0, 0, 0, 0, 255, 178, 0, 120, 0, 0, 0, 0, 0, 0, 0, 0, 0, 0, 0, 0, 0, 0, 0, 0, 0, 0, 0, 0, 0, 0, 0, 0, 0, 0, 0, 0, 0, 10, 231, 150, 24, 106, 128, 0, 217, 84, 1, 44, 0, 0, 0, 0, 0, 0, 0, 0, 0, 0, 0, 0, 0, 0, 0, 0, 0, 0, 0, 0, 0, 0, 0, 0, 0, 0, 0, 0, 0, 0, 0, 0, 0, 0, 0, 0, 0, 0, 0, 0, 0, 0, 0, 0, 0, 0, 0, 0, 0, 0, 0, 0, 0, 88]}
